Chapter 5 Results | Movie Analysis
…
Explanation of the graph:

Here, we want to find whether the movie rating is related to the number of movies. From the line plot of films with different scores from 2020 to 2021, we can see all categories saw a decline in the number of films in 2020 because of the epidemic. Between 2000 and 2020, the total number of movies that scored more than 2 increased. Interestingly, the number of films with a score of less than 2 fluctuated more significantly during the 20 years, which may be due to the low public evaluation of low-scoring films, and the return on investment would change more sharply with different years, thus affecting the number of films released.

## # A tibble: 28 × 3
##    g1          count_gen gen_ave
##    <chr>           <int>   <dbl>
##  1 Action          28618    5.70
##  2 Adult            4325    5.82
##  3 Adventure       11364    5.97
##  4 Animation        2562    6.36
##  5 Biography        7681    6.97
##  6 Comedy          58651    5.90
##  7 Crime           12801    6.05
##  8 Documentary     34718    7.20
##  9 Drama           75821    6.26
## 10 Family           1962    6.10
## # … with 18 more rows
…
